TA_class_1128 - Hochia learning R
…
模擬重複抽樣 100 次，每次抽樣均抽出 100 組樣本，驗證雙尾檢定下 95% 的信賴區間。

在觀察到樣本前，預期樣本的信賴區間有 95% 的可能涵蓋母體平均數，
我們檢驗在重複抽樣 100 次後，有多少次抽樣的信賴區間包含母體平均數。

# 模擬
simulate <- map(1:100, ~ tibble(r = rnorm(100, 0, 2)))
lower_upper <- map(1:100, ~ simulate[[.x]]) %>%
  map(~ tibble(lower = mean(.x$r) - qnorm(0.975, 0, 1) * 2 / sqrt(100),
               upper = mean(.x$r) - qnorm(0.025, 0, 1) * 2 / sqrt(100))) %>%
  bind_rows()

lower_upper

#> # A tibble: 100 x 2
#>      lower upper
#>      <dbl> <dbl>
#>  1 -0.366  0.418
#>  2 -0.558  0.226
#>  3 -0.655  0.129
#>  4 -0.144  0.640
#>  5 -0.518  0.266
#>  6 -0.0542 0.730
#>  7  0.0739 0.858
#>  8 -0.605  0.179
#>  9 -0.273  0.511
#> 10 -0.553  0.231
#> # ... with 90 more rows
…
